{
    "java.configuration.updateBuildConfiguration": "automatic",
    "java.format.settings.url": "todolist/config/checkstyle/eclipse-java-google-style.xml",
    "[java]": {
      "editor.tabSize": 2
    },
    "java.dependency.packagePresentation": "hierarchical"
}
